#354 - Tripoli

owner = A32
controller = A32
add_core = A32
culture = moon_elf
religion = elven_forebears

hre = no

base_tax = 5
base_production = 5
base_manpower = 2

trade_goods = copper

capital = ""

is_city = yes
fort_15th = yes 






