country_decisions = {

	vrorenmarch_nation = {
		major = yes
		potential = {
			culture_group = escanni
			NOT = { culture_is_half_orcish = yes }
			normal_or_historical_nations = yes
			was_never_end_game_tag_trigger = yes
			NOT = { has_country_flag = formed_vrorenmarch_flag }
			NOT = { exists = Z45 } #Vrorenmarch doesn't exist
			NOT = { tag = B56 } #Silvermere
			NOT = { tag = B33 } #Blademarches
			NOT = { tag = B31 } #Castellyr
			NOT = { tag = B58 } #Adenica
			
			NOT = { has_country_flag = feudal_escann_kingdom }	#prevents countries like Blademarches from forming
			NOT = { has_reform = adventurer_reform }

			OR = {
				ai = no
				is_playing_custom_nation = no
			}
			OR = {
				ai = no
				AND = {
					ai = yes
					num_of_cities = 3
				}
			}
			is_colonial_nation = no
			OR = {
				is_former_colonial_nation = no
				AND = {
					is_former_colonial_nation = yes
					ai = no
				}
			}
		}
		provinces_to_highlight = {
			OR = {
				province_id = 740	#Bal Vroren
				province_id = 735
				province_id = 749
				province_id = 737
				province_id = 738
				province_id = 739
				province_id = 742
			}
			OR = {
				NOT = { owned_by = ROOT }
				NOT = { is_core = ROOT }
			}
		}
		allow = {
			adm_tech = 7
			government_rank = 1
			#is_free_or_tributary_trigger = yes vrorenmarch defined by being a march of Castanor
			is_nomad = no
			is_at_war = no
			num_of_cities = 10
			owns_core_province = 740	#Bal Vroren
			owns_core_province = 735
			owns_core_province = 749
			owns_core_province = 737
			owns_core_province = 738
			owns_core_province = 739
			owns_core_province = 742
		}
		effect = {
			set_country_flag = feudal_escann_kingdom
			change_tag = Z45
			remove_non_electors_emperors_from_empire_effect = yes
			if = {
				limit = {
					NOT = { government_rank = 2 }
				}
				set_government_rank = 2
			}
			if = {
				limit = {
					has_reform = adventurer_reform
				}
				adventurer_legacy_effect = yes
				set_country_flag = adventurer_derived_government
			}
			hidden_effect = {
				every_owned_province = {
					limit = {
						has_owner_culture = yes
						owner = {
							NOT = { culture_is_half_orcish = yes }
						}
					}
					change_culture = white_reachman
				}
			}
			if = {
				limit = { ruler_culture = ROOT NOT = { ruler_is_half_orc = yes } }
				set_ruler_culture = white_reachman
			}
			if = {
				limit = { has_heir = yes heir_culture = ROOT NOT = { heir_is_half_orc = yes } }
				set_heir_culture = white_reachman
			}
			if = {
				limit = { has_consort = yes consort_culture = ROOT NOT = { consort_is_half_orc = yes } }
				set_consort_culture = white_reachman
			}
			change_primary_culture = white_reachman
			
			#Claims
			vrorenmarch_area = {
				limit = {
					NOT = { owned_by = ROOT }
				}
				add_claim = Z45
			}
			gulletpeak_area = {
				limit = {
					NOT = { owned_by = ROOT }
				}
				add_claim = Z45
			}
			cedesck_area = {
				limit = {
					NOT = { owned_by = ROOT }
				}
				add_claim = Z45
			}
			vrorenwall_area = {
				limit = {
					NOT = { owned_by = ROOT }
				}
				add_claim = Z45
			}
			sondaar_area = {
				limit = {
					NOT = { owned_by = ROOT }
				}
				add_claim = Z45
			}
			wudhal_area = {
				limit = {
					NOT = { owned_by = ROOT }
				}
				add_claim = Z45
			}
			east_chillsbay_area = {
				limit = {
					NOT = { owned_by = ROOT }
				}
				add_claim = Z45
			}
			drowned_giant_isles_area = {
				limit = {
					NOT = { owned_by = ROOT }
				}
				add_claim = Z45
			}
			add_prestige = 50
			add_country_modifier = {
				name = "centralization_modifier"
				duration = 7300
			}
			set_country_flag = formed_vrorenmarch_flag
			clr_country_flag = 	knightly_order_adventurer
			if = {
				limit = { has_custom_ideas = no }
				country_event = { id = ideagroups.1 } #Swap Ideas
			}
		}
		ai_will_do = {
			factor = 1
		}
		ai_importance = 400
	}

	vrorenmarch_march_release = {
		major = yes
		potential = {
			tag = B32
			normal_or_historical_nations = yes
			NOT = { exists = Z45 } #Vrorenmarch doesn't exist
			is_colonial_nation = no
			OR = {
				is_former_colonial_nation = no
				AND = {
					is_former_colonial_nation = yes
					ai = no
				}
			}
		}
		provinces_to_highlight = {
			OR = {
				province_id = 740	#Bal Vroren
				province_id = 735
			#	province_id = 749
				province_id = 737
				province_id = 738
				province_id = 739
			#	province_id = 742
			}
			OR = {
				NOT = { owned_by = ROOT }
				NOT = { is_core = ROOT }
			}
		}
		allow = {
			adm_tech = 7
			is_free_or_tributary_trigger = yes
			is_nomad = no
			is_at_war = no
			num_of_cities = 10
			owns_core_province = 740	#Bal Vroren
			owns_core_province = 735
			#owns_core_province = 749
			owns_core_province = 737
			owns_core_province = 738
			owns_core_province = 739
			#owns_core_province = 742
		}
		effect = {
			hidden_effect = {
				alenic_reach_region = {
					limit = {
						owned_by = B32
					}
					add_core = Z45
					remove_core = B32
				}
				gerudian_coast_region = {
					limit = {
						owned_by = B32
					}
					add_core = Z45
					remove_core = B32
				}
				dalr_region = {
					limit = {
						owned_by = B32
					}
					add_core = Z45
					remove_core = B32
				}
				alenic_reach_region = {
					limit = {
						has_owner_culture = yes
						owned_by = B32
					}
					change_culture = white_reachman
				}
				gerudian_coast_region = {
					limit = {
						has_owner_culture = yes
						owned_by = B32
					}
					change_culture = white_reachman
				}
				dalr_region = {
					limit = {
						has_owner_culture = yes
						owned_by = B32
					}
					change_culture = white_reachman
				}
			}
			custom_tooltip = vrorenmarch_release_tooltip
			release = Z45
			create_march = Z45
			Z45 = {
				change_religion = ROOT
				set_ruler_religion = ROOT
				set_country_flag = feudal_escann_kingdom
				change_government = monarchy
				change_primary_culture = white_reachman
				
				#Claims
				vrorenmarch_area = {
					limit = {
						NOT = { owned_by = ROOT }
					}
					add_claim = Z45
				}
				gulletpeak_area = {
					limit = {
						NOT = { owned_by = ROOT }
					}
					add_claim = Z45
				}
				cedesck_area = {
					limit = {
						NOT = { owned_by = ROOT }
					}
					add_claim = Z45
				}
				vrorenwall_area = {
					limit = {
						NOT = { owned_by = ROOT }
					}
					add_claim = Z45
				}
				sondaar_area = {
					limit = {
						NOT = { owned_by = ROOT }
					}
					add_claim = Z45
				}
				wudhal_area = {
					limit = {
						NOT = { owned_by = ROOT }
					}
					add_claim = Z45
				}
				east_chillsbay_area = {
					limit = {
						NOT = { owned_by = ROOT }
					}
					add_claim = Z45
				}
				drowned_giant_isles_area = {
					limit = {
						NOT = { owned_by = ROOT }
					}
					add_claim = Z45
				}
				set_country_flag = formed_vrorenmarch_flag
				clr_country_flag = 	knightly_order_adventurer
				if = {
					limit = { has_custom_ideas = no }
					country_event = { id = ideagroups.1 } #Swap Ideas
				}
			}
		}
		ai_will_do = {
			factor = 1
			modifier = {
				factor = 0
				capital_scope = {
					region = alenic_reach_region #stop them from doing it if they don't have a capital and 30 provinces outside the Alenic Reach as a good base
				}
			}
			modifier = {
				factor = 0
				NOT = {
					num_of_owned_provinces_with = {
						value = 30
						NOT = { region = alenic_reach_region }
					}
				}
			}
		}
		#ai_importance = 400
	}
}